<?xml version="1.0" encoding="iso-8859-1"?>
<!-- Generator: Adobe Illustrator 19.0.0, SVG Export Plug-In . SVG Version: 6.00 Build 0)  -->
<svg version="1.1" id="Capa_1" xmlns="http://www.w3.org/2000/svg" xmlns:xlink="http://www.w3.org/1999/xlink" x="0px" y="0px"
	 viewBox="0 0 512 512" style="enable-background:new 0 0 512 512;" xml:space="preserve">
<g>
	<g>
		<g>
			<polygon points="152.818,424.585 152.818,31.061 238.204,31.061 238.204,16.061 137.818,16.061 137.818,85.303 42.813,85.303 
				0,128.115 0,179.034 15.001,179.034 15.001,134.329 49.026,100.304 137.818,100.304 137.818,129.085 66.355,129.085 
				43.782,151.657 43.782,207.831 58.782,207.831 58.782,157.871 72.568,144.085 137.818,144.085 137.818,307.78 72.568,307.78 
				58.782,293.993 58.782,222.832 43.782,222.832 43.782,300.207 66.355,322.78 137.818,322.78 137.818,351.561 49.026,351.561 
				15.001,317.534 15.001,194.035 0,194.035 0,323.747 42.813,366.562 137.818,366.562 137.818,430.798 149.114,442.096 
				159.723,431.488 			"/>
			<path d="M497,424.585L497,424.585l-22.47,22.47H175.288l-4.968-4.969l-10.607,10.607l9.362,9.361h13.613v33.885h284.441v-33.885
				h13.613L512,430.797V284.282h-15V424.585z M452.13,480.94L452.13,480.94H197.69v-18.885h254.44V480.94z"/>
			<polygon points="253.205,16.061 253.205,31.061 496.999,31.061 496.999,269.282 512,269.282 512,16.061 			"/>
			<rect x="463.346" y="61.262" width="15.001" height="15.001"/>
			<rect x="463.346" y="86.263" width="15.001" height="15"/>
			<rect x="463.346" y="111.264" width="15.001" height="172.656"/>
			<rect x="21.483" y="208.767" width="15.001" height="92.833"/>
			<rect x="21.483" y="158.766" width="15.001" height="15.001"/>
			<rect x="21.483" y="183.766" width="15.001" height="15"/>
			<rect x="391.294" y="405.604" width="80.273" height="15.001"/>
			<rect x="250.719" y="404.974" width="15.001" height="15"/>
			<rect x="225.718" y="404.974" width="15" height="15"/>
			<rect x="175.716" y="404.974" width="15.001" height="15"/>
			<rect x="200.717" y="404.974" width="15.001" height="15"/>
			<rect x="166.926" y="50.592" width="101.364" height="15"/>
			<rect x="172.836" y="219.248" width="15.001" height="96.483"/>
			<rect x="172.836" y="350.722" width="15.001" height="15"/>
			<rect x="172.836" y="325.721" width="15.001" height="15.001"/>
			<path d="M297.792,293.551l0.04,0.03l9.239-11.82l-0.039-0.03c-17.382-13.591-32.212-27.61-42.871-40.551l-0.03-0.04l-11.53,9.51
				l-0.04,0.03l0.03,0.04C264.1,264.69,279.311,279.101,297.792,293.551z"/>
			<path d="M402.229,243.722c10.917-15.622,16.453-29.482,16.453-41.194c0.001-10.573-3.817-20.803-10.752-28.802l-11.334,9.826
				c4.57,5.271,7.087,12.01,7.086,18.975c0,8.459-4.754,19.733-13.747,32.604L402.229,243.722z"/>
			<path d="M370.241,158.731c-6.09,0.602-11.86,2.417-17.15,5.396l7.361,13.07c3.466-1.952,7.255-3.143,11.263-3.538
				L370.241,158.731z"/>
			<path d="M379.655,173.941c3.937,0.684,7.63,2.155,10.978,4.371l8.28-12.506c-5.085-3.367-10.7-5.603-16.691-6.645
				L379.655,173.941z"/>
			<path d="M423.796,153.396c-6.38-6.38-13.811-11.39-22.081-14.891c-8.57-3.62-17.671-5.46-27.051-5.46
				c-9.54,0-18.791,1.9-27.481,5.65c-8.39,3.619-15.881,8.779-22.271,15.341c-6.4-6.561-13.891-11.721-22.272-15.341
				c-8.7-3.75-17.94-5.65-27.491-5.65c-9.38,0-18.48,1.84-27.041,5.46c-8.279,3.5-15.711,8.51-22.091,14.891
				c-6.37,6.38-11.38,13.811-14.881,22.081c-3.63,8.57-5.46,17.671-5.47,27.051c0,5.461,0.84,11.16,2.49,16.922l0.01,0.05
				l14.42-4.12l-0.01-0.05c-1.271-4.431-1.91-8.74-1.91-12.801c0.01-14.55,5.68-28.23,15.961-38.521
				c10.3-10.29,23.98-15.961,38.521-15.961c17.382,0,33.321,8.02,43.742,22.001l6.021,8.09l6.01-8.09
				c10.42-13.98,26.361-22.001,43.742-22.001c14.541,0,28.221,5.67,38.521,15.961c10.29,10.3,15.951,23.981,15.961,38.521
				c0.03,10.301-4.07,21.882-12.18,34.411c-10.04,15.602-26.431,32.841-48.712,51.232c-15.701,12.979-31.062,23.9-42.272,31.871
				l-1.069,0.77l-1.04-0.74c-11.84-8.42-29.722-21.141-46.992-35.83c-16.601-14.08-38.621-35.281-49.262-56.353l-0.03-0.05
				l-13.32,6.78l-0.05,0.029l0.021,0.04c5.29,10.351,13.029,21.211,22.99,32.281c8.261,9.17,18.052,18.561,29.932,28.691
				c17.791,15.141,35.881,28.011,47.861,36.521c1.98,1.41,3.851,2.74,5.511,3.93l4.35,3.12l0.03,0.021l4.37-3.141
				c1.689-1.21,3.6-2.569,5.619-4.01c14.961-10.63,39.991-28.431,61.912-49.082c14.201-13.391,24.911-25.801,32.761-37.951
				c9.771-15.181,14.54-29.091,14.57-42.541c0-9.38-1.84-18.48-5.46-27.051C435.186,167.207,430.176,159.777,423.796,153.396z"/>
		</g>
	</g>
</g>
<g>
</g>
<g>
</g>
<g>
</g>
<g>
</g>
<g>
</g>
<g>
</g>
<g>
</g>
<g>
</g>
<g>
</g>
<g>
</g>
<g>
</g>
<g>
</g>
<g>
</g>
<g>
</g>
<g>
</g>
</svg>
